{
	"replace": false,
	"values": [
		"lycanitesmobs:demonstonebrick_wall",
		"lycanitesmobs:desertstonebrick_wall",
		"lycanitesmobs:lushstonebrick_wall",
		"lycanitesmobs:shadowstonebrick_wall",
		"lycanitesmobs:aberrantstonebrick_wall"
	]
}