{
  "result": {
    "item": "lycanitesmobs:demonicblastcharge",
    "count": 4
  },
  "ingredients": [
	{
      "item": "lycanitesmobs:equipmentpart_zephyrblade"
    }
  ],
  "type": "minecraft:crafting_shapeless"
}